{"page":1,"per_page":3,"total":16,"total_pages":4,"data":[{"id":1,"first_name":"George","last_name":"Bluth","avatar":"https://rgsdata.github.io/Imgs/128.jpg"},{"id":2,"first_name":"Janet","last_name":"Weaver","avatar":"https://rgsdata.github.io/Imgs/1281.jpg"},{"id":3,"first_name":"Emma","last_name":"Wong","avatar":"https://rgsdata.github.io/Imgs/1282.jpg"}]}